%YAML 1.1
%TAG !u! tag:unity3d.com,2011:
--- !u!1 &4994621827597895627
GameObject:
  m_ObjectHideFlags: 0
  m_CorrespondingSourceObject: {fileID: 0}
  m_PrefabInstance: {fileID: 0}
  m_PrefabAsset: {fileID: 0}
  serializedVersion: 6
  m_Component:
  - component: {fileID: 4994621827597895624}
  - component: {fileID: 4994621827597895625}
  m_Layer: 0
  m_Name: Lantern
  m_TagString: Lantern
  m_Icon: {fileID: 0}
  m_NavMeshLayer: 0
  m_StaticEditorFlags: 0
  m_IsActive: 1
--- !u!4 &4994621827597895624
Transform:
  m_ObjectHideFlags: 0
  m_CorrespondingSourceObject: {fileID: 0}
  m_PrefabInstance: {fileID: 0}
  m_PrefabAsset: {fileID: 0}
  m_GameObject: {fileID: 4994621827597895627}
  m_LocalRotation: {x: -0, y: -0.7071068, z: -0, w: 0.7071068}
  m_LocalPosition: {x: 0, y: 0, z: 0}
  m_LocalScale: {x: 1, y: 1, z: 1}
  m_Children:
  - {fileID: 1316282415484598540}
  m_Father: {fileID: 0}
  m_RootOrder: 0
  m_LocalEulerAnglesHint: {x: 0, y: -90, z: 0}
--- !u!65 &4994621827597895625
BoxCollider:
  m_ObjectHideFlags: 0
  m_CorrespondingSourceObject: {fileID: 0}
  m_PrefabInstance: {fileID: 0}
  m_PrefabAsset: {fileID: 0}
  m_GameObject: {fileID: 4994621827597895627}
  m_Material: {fileID: 0}
  m_IsTrigger: 0
  m_Enabled: 1
  serializedVersion: 2
  m_Size: {x: 1, y: 1.25, z: 1}
  m_Center: {x: 0, y: 0.5, z: 0.5}
--- !u!1001 &6286720706324779542
PrefabInstance:
  m_ObjectHideFlags: 0
  serializedVersion: 2
  m_Modification:
    m_TransformParent: {fileID: 4994621827597895624}
    m_Modifications:
    - target: {fileID: -927199367670048503, guid: 79c8e3d05e9f59b4ca893ce552b540fa,
        type: 3}
      propertyPath: m_Name
      value: LaterneStefan
      objectReference: {fileID: 0}
    - target: {fileID: -4216859302048453862, guid: 79c8e3d05e9f59b4ca893ce552b540fa,
        type: 3}
      propertyPath: m_LocalPosition.x
      value: -0.22999997
      objectReference: {fileID: 0}
    - target: {fileID: -4216859302048453862, guid: 79c8e3d05e9f59b4ca893ce552b540fa,
        type: 3}
      propertyPath: m_LocalPosition.y
      value: -0.1
      objectReference: {fileID: 0}
    - target: {fileID: -4216859302048453862, guid: 79c8e3d05e9f59b4ca893ce552b540fa,
        type: 3}
      propertyPath: m_LocalPosition.z
      value: 0.50000006
      objectReference: {fileID: 0}
    - target: {fileID: -4216859302048453862, guid: 79c8e3d05e9f59b4ca893ce552b540fa,
        type: 3}
      propertyPath: m_LocalRotation.x
      value: -0
      objectReference: {fileID: 0}
    - target: {fileID: -4216859302048453862, guid: 79c8e3d05e9f59b4ca893ce552b540fa,
        type: 3}
      propertyPath: m_LocalRotation.y
      value: 0.7071068
      objectReference: {fileID: 0}
    - target: {fileID: -4216859302048453862, guid: 79c8e3d05e9f59b4ca893ce552b540fa,
        type: 3}
      propertyPath: m_LocalRotation.z
      value: -0
      objectReference: {fileID: 0}
    - target: {fileID: -4216859302048453862, guid: 79c8e3d05e9f59b4ca893ce552b540fa,
        type: 3}
      propertyPath: m_LocalRotation.w
      value: 0.7071068
      objectReference: {fileID: 0}
    - target: {fileID: -4216859302048453862, guid: 79c8e3d05e9f59b4ca893ce552b540fa,
        type: 3}
      propertyPath: m_RootOrder
      value: 0
      objectReference: {fileID: 0}
    - target: {fileID: -4216859302048453862, guid: 79c8e3d05e9f59b4ca893ce552b540fa,
        type: 3}
      propertyPath: m_LocalEulerAnglesHint.x
      value: 0
      objectReference: {fileID: 0}
    - target: {fileID: -4216859302048453862, guid: 79c8e3d05e9f59b4ca893ce552b540fa,
        type: 3}
      propertyPath: m_LocalEulerAnglesHint.y
      value: 0
      objectReference: {fileID: 0}
    - target: {fileID: -4216859302048453862, guid: 79c8e3d05e9f59b4ca893ce552b540fa,
        type: 3}
      propertyPath: m_LocalEulerAnglesHint.z
      value: 0
      objectReference: {fileID: 0}
    - target: {fileID: -4216859302048453862, guid: 79c8e3d05e9f59b4ca893ce552b540fa,
        type: 3}
      propertyPath: m_LocalScale.x
      value: 0.5000001
      objectReference: {fileID: 0}
    - target: {fileID: -4216859302048453862, guid: 79c8e3d05e9f59b4ca893ce552b540fa,
        type: 3}
      propertyPath: m_LocalScale.y
      value: 0.5
      objectReference: {fileID: 0}
    - target: {fileID: -4216859302048453862, guid: 79c8e3d05e9f59b4ca893ce552b540fa,
        type: 3}
      propertyPath: m_LocalScale.z
      value: 0.5000001
      objectReference: {fileID: 0}
    m_RemovedComponents: []
  m_SourcePrefab: {fileID: 100100000, guid: 79c8e3d05e9f59b4ca893ce552b540fa, type: 3}
--- !u!4 &1316282415484598540 stripped
Transform:
  m_CorrespondingSourceObject: {fileID: -4216859302048453862, guid: 79c8e3d05e9f59b4ca893ce552b540fa,
    type: 3}
  m_PrefabInstance: {fileID: 6286720706324779542}
  m_PrefabAsset: {fileID: 0}
